…
rap_chart_artists <- readxl::read_excel("data/Rap_Charts.xlsx", sheet = "Artists")
rap_chart_singles <- readxl::read_excel("data/Rap_Charts.xlsx", sheet = "Singles")

(rap_artist_singles <- rap_chart_artists %>%
    dplyr::full_join(rap_chart_singles, by = "Artist_ID"))
## # A tibble: 167 x 8
##    Artist_ID First_Name Last_Name Psuedonym  Year Single  Top_US_Rap_Chart
##        <dbl> <chr>      <chr>     <chr>     <dbl> <chr>              <dbl>
##  1         4 O'Shea     Jackson   Ice Cube   1990 "\"Who…               NA
##  2         4 O'Shea     Jackson   Ice Cube   1990 "\"Ame…                1
##  3         4 O'Shea     Jackson   Ice Cube   1990 "\"End…               NA
##  4         4 O'Shea     Jackson   Ice Cube   1990 "\"Dea…               NA
##  5         4 O'Shea     Jackson   Ice Cube   1990 "\"Jac…               NA
##  6         4 O'Shea     Jackson   Ice Cube   1991 "\"Ste…                3
##  7         4 O'Shea     Jackson   Ice Cube   1992 "\"Tru…               NA
##  8         4 O'Shea     Jackson   Ice Cube   1992 "\"Wic…               NA
##  9         4 O'Shea     Jackson   Ice Cube   1993 "\"It …                1
## 10         4 O'Shea     Jackson   Ice Cube   1993 "\"Che…                1
## # ... with 157 more rows, and 1 more variable: Album <chr>
```
…
